Q810096	P1343	Q85680859	P2699	"https://kultur-burgenland.at/museen-galerien/detail/basilika-frauenkirchen/"	P3295	"basilika-frauenkirchen"	S854	"https://kultur-burgenland.at/museen-galerien/detail/basilika-frauenkirchen/"	S813	+2020-02-20T00:00:00Z/11
Q810096	P281	"7132"	S854	"https://kultur-burgenland.at/museen-galerien/detail/basilika-frauenkirchen/"	S813	+2020-02-20T00:00:00Z/11
Q810096	P856	"http://www.martinus.at/frauenkirchen"	P407	Q188	S854	"https://kultur-burgenland.at/museen-galerien/detail/basilika-frauenkirchen/"	S813	+2020-02-20T00:00:00Z/11
Q810093	P1343	Q85680859	P2699	"https://kultur-burgenland.at/museen-galerien/detail/basilika-maria-loretto/"	P3295	"basilika-maria-loretto"	S854	"https://kultur-burgenland.at/museen-galerien/detail/basilika-maria-loretto/"	S813	+2020-02-20T00:00:00Z/11
Q810093	P281	"2443"	S854	"https://kultur-burgenland.at/museen-galerien/detail/basilika-maria-loretto/"	S813	+2020-02-20T00:00:00Z/11
Q810093	P856	"https://www.martinus.at/loretto/"	P407	Q188	S854	"https://kultur-burgenland.at/museen-galerien/detail/basilika-maria-loretto/"	S813	+2020-02-20T00:00:00Z/11
Q18018888	P1343	Q85680859	P2699	"https://kultur-burgenland.at/museen-galerien/detail/bunkeranlage-ungerberg/"	P3295	"bunkeranlage-ungerberg"	S854	"https://kultur-burgenland.at/museen-galerien/detail/bunkeranlage-ungerberg/"	S813	+2020-02-20T00:00:00Z/11
Q18018888	P281	"2460"	S854	"https://kultur-burgenland.at/museen-galerien/detail/bunkeranlage-ungerberg/"	S813	+2020-02-20T00:00:00Z/11
Q18018888	P856	"https://www.hgm.at/ausstellungen/aussenstellendependancen/bunkeranlage-ungerberg-bruckneudorf.html"	P407	Q188	S854	"https://kultur-burgenland.at/museen-galerien/detail/bunkeranlage-ungerberg/"	S813	+2020-02-20T00:00:00Z/11
Q700670	P1343	Q85680859	P2699	"https://kultur-burgenland.at/museen-galerien/detail/burg-bernstein/"	P3295	"burg-bernstein"	S854	"https://kultur-burgenland.at/museen-galerien/detail/burg-bernstein/"	S813	+2020-02-20T00:00:00Z/11
Q700670	P281	"7434"	S854	"https://kultur-burgenland.at/museen-galerien/detail/burg-bernstein/"	S813	+2020-02-20T00:00:00Z/11
Q700670	P856	"http://www.burgbernstein.at/Kontakt.html"	P407	Q188	S854	"https://kultur-burgenland.at/museen-galerien/detail/burg-bernstein/"	S813	+2020-02-20T00:00:00Z/11
Q877030	P1343	Q85680859	P2699	"https://kultur-burgenland.at/museen-galerien/detail/burg-forchtenstein/"	P3295	"burg-forchtenstein"	S854	"https://kultur-burgenland.at/museen-galerien/detail/burg-forchtenstein/"	S813	+2020-02-20T00:00:00Z/11
Q877030	P281	"7212"	S854	"https://kultur-burgenland.at/museen-galerien/detail/burg-forchtenstein/"	S813	+2020-02-20T00:00:00Z/11
Q877030	P856	"https://esterhazy.at/de/burgforchtenstein/index.do"	P407	Q188	S854	"https://kultur-burgenland.at/museen-galerien/detail/burg-forchtenstein/"	S813	+2020-02-20T00:00:00Z/11
Q697030	P1343	Q85680859	P2699	"https://kultur-burgenland.at/museen-galerien/detail/burg-guessing/"	P3295	"burg-guessing"	S854	"https://kultur-burgenland.at/museen-galerien/detail/burg-guessing/"	S813	+2020-02-20T00:00:00Z/11
Q697030	P281	"7540"	S854	"https://kultur-burgenland.at/museen-galerien/detail/burg-guessing/"	S813	+2020-02-20T00:00:00Z/11
Q697030	P856	"http://www.burgguessing.at"	P407	Q188	S854	"https://kultur-burgenland.at/museen-galerien/detail/burg-guessing/"	S813	+2020-02-20T00:00:00Z/11
Q681677	P1343	Q85680859	P2699	"https://kultur-burgenland.at/museen-galerien/detail/burg-lockenhaus/"	P3295	"burg-lockenhaus"	S854	"https://kultur-burgenland.at/museen-galerien/detail/burg-lockenhaus/"	S813	+2020-02-20T00:00:00Z/11
Q681677	P281	"7442"	S854	"https://kultur-burgenland.at/museen-galerien/detail/burg-lockenhaus/"	S813	+2020-02-20T00:00:00Z/11
Q681677	P856	"https://www.ritterburg.at/"	P407	Q188	S854	"https://kultur-burgenland.at/museen-galerien/detail/burg-lockenhaus/"	S813	+2020-02-20T00:00:00Z/11
Q785923	P1343	Q85680859	P2699	"https://kultur-burgenland.at/museen-galerien/detail/burg-schlaining/"	P3295	"burg-schlaining"	S854	"https://kultur-burgenland.at/museen-galerien/detail/burg-schlaining/"	S813	+2020-02-20T00:00:00Z/11
Q785923	P281	"7461"	S854	"https://kultur-burgenland.at/museen-galerien/detail/burg-schlaining/"	S813	+2020-02-20T00:00:00Z/11
Q785923	P856	"https://www.museum.friedensburg.at/"	P407	Q188	S854	"https://kultur-burgenland.at/museen-galerien/detail/burg-schlaining/"	S813	+2020-02-20T00:00:00Z/11
Q389883	P1343	Q85680859	P2699	"https://kultur-burgenland.at/museen-galerien/detail/burgruine-landsee/"	P3295	"burgruine-landsee"	S854	"https://kultur-burgenland.at/museen-galerien/detail/burgruine-landsee/"	S813	+2020-02-20T00:00:00Z/11
Q389883	P281	"7341"	S854	"https://kultur-burgenland.at/museen-galerien/detail/burgruine-landsee/"	S813	+2020-02-20T00:00:00Z/11
Q389883	P856	"http://www.landseeaktiv.at/burgruine/ruine/ruine.htm"	P407	Q188	S854	"https://kultur-burgenland.at/museen-galerien/detail/burgruine-landsee/"	S813	+2020-02-20T00:00:00Z/11
Q264570	P1343	Q85680859	P2699	"https://kultur-burgenland.at/museen-galerien/detail/dom-st-martin/"	P3295	"dom-st-martin"	S854	"https://kultur-burgenland.at/museen-galerien/detail/dom-st-martin/"	S813	+2020-02-20T00:00:00Z/11
Q264570	P281	"7000"	S854	"https://kultur-burgenland.at/museen-galerien/detail/dom-st-martin/"	S813	+2020-02-20T00:00:00Z/11
Q264570	P856	"http://www.dompfarre-eisenstadt.at/"	P407	Q188	S854	"https://kultur-burgenland.at/museen-galerien/detail/dom-st-martin/"	S813	+2020-02-20T00:00:00Z/11
Q1244877	P1343	Q85680859	P2699	"https://kultur-burgenland.at/museen-galerien/detail/dorfmuseum-moenchhof/"	P3295	"dorfmuseum-moenchhof"	S854	"https://kultur-burgenland.at/museen-galerien/detail/dorfmuseum-moenchhof/"	S813	+2020-02-20T00:00:00Z/11
Q1244877	P281	"7123"	S854	"https://kultur-burgenland.at/museen-galerien/detail/dorfmuseum-moenchhof/"	S813	+2020-02-20T00:00:00Z/11
Q1244877	P856	"http://www.dorfmuseum.at/"	P407	Q188	S854	"https://kultur-burgenland.at/museen-galerien/detail/dorfmuseum-moenchhof/"	S813	+2020-02-20T00:00:00Z/11
Q1261018	P1343	Q85680859	P2699	"https://kultur-burgenland.at/museen-galerien/detail/freilichtmuseum-bad-tatzmannsdorf/"	P3295	"freilichtmuseum-bad-tatzmannsdorf"	S854	"https://kultur-burgenland.at/museen-galerien/detail/freilichtmuseum-bad-tatzmannsdorf/"	S813	+2020-02-20T00:00:00Z/11
Q1261018	P281	"7431"	S854	"https://kultur-burgenland.at/museen-galerien/detail/freilichtmuseum-bad-tatzmannsdorf/"	S813	+2020-02-20T00:00:00Z/11
Q1261018	P856	"http://www.freilichtmuseum-badtatzmannsdorf.at/"	P407	Q188	S854	"https://kultur-burgenland.at/museen-galerien/detail/freilichtmuseum-bad-tatzmannsdorf/"	S813	+2020-02-20T00:00:00Z/11
Q1454512	P1343	Q85680859	P2699	"https://kultur-burgenland.at/museen-galerien/detail/freilichtmuseum-ensemble-gerersdorf/"	P3295	"freilichtmuseum-ensemble-gerersdorf"	S854	"https://kultur-burgenland.at/museen-galerien/detail/freilichtmuseum-ensemble-gerersdorf/"	S813	+2020-02-20T00:00:00Z/11
Q1454512	P281	"7542"	S854	"https://kultur-burgenland.at/museen-galerien/detail/freilichtmuseum-ensemble-gerersdorf/"	S813	+2020-02-20T00:00:00Z/11
Q1454512	P856	"http://www.freilichtmuseum-gerersdorf.at/"	P407	Q188	S854	"https://kultur-burgenland.at/museen-galerien/detail/freilichtmuseum-ensemble-gerersdorf/"	S813	+2020-02-20T00:00:00Z/11
Q15858570	P1343	Q85680859	P2699	"https://kultur-burgenland.at/museen-galerien/detail/haus-dellacher/"	P3295	"haus-dellacher"	S854	"https://kultur-burgenland.at/museen-galerien/detail/haus-dellacher/"	S813	+2020-02-20T00:00:00Z/11
Q15858570	P281	"7400"	S854	"https://kultur-burgenland.at/museen-galerien/detail/haus-dellacher/"	S813	+2020-02-20T00:00:00Z/11
Q15858570	P856	"http://www.dasdellacher.at/de"	P407	Q188	S854	"https://kultur-burgenland.at/museen-galerien/detail/haus-dellacher/"	S813	+2020-02-20T00:00:00Z/11
Q1591860	P1343	Q85680859	P2699	"https://kultur-burgenland.at/museen-galerien/detail/haydn-haus-eisenstadt/"	P3295	"haydn-haus-eisenstadt"	S854	"https://kultur-burgenland.at/museen-galerien/detail/haydn-haus-eisenstadt/"	S813	+2020-02-20T00:00:00Z/11
Q1591860	P281	"7000"	S854	"https://kultur-burgenland.at/museen-galerien/detail/haydn-haus-eisenstadt/"	S813	+2020-02-20T00:00:00Z/11
Q1591860	P856	"https://haydnhaus.at/"	P407	Q188	S854	"https://kultur-burgenland.at/museen-galerien/detail/haydn-haus-eisenstadt/"	S813	+2020-02-20T00:00:00Z/11
Q37924959	P1343	Q85680859	P2699	"https://kultur-burgenland.at/museen-galerien/detail/heimathaus-moerbisch/"	P3295	"heimathaus-moerbisch"	S854	"https://kultur-burgenland.at/museen-galerien/detail/heimathaus-moerbisch/"	S813	+2020-02-20T00:00:00Z/11
Q37924959	P281	"7072"	S854	"https://kultur-burgenland.at/museen-galerien/detail/heimathaus-moerbisch/"	S813	+2020-02-20T00:00:00Z/11
Q37924959	P856	"https://www.moerbischamsee.at/kunst-kultur.html"	P407	Q188	S854	"https://kultur-burgenland.at/museen-galerien/detail/heimathaus-moerbisch/"	S813	+2020-02-20T00:00:00Z/11
Q1595161	P1343	Q85680859	P2699	"https://kultur-burgenland.at/museen-galerien/detail/kellerviertel-heiligenbrunn/"	P3295	"kellerviertel-heiligenbrunn"	S854	"https://kultur-burgenland.at/museen-galerien/detail/kellerviertel-heiligenbrunn/"	S813	+2020-02-20T00:00:00Z/11
Q1595161	P281	"7522"	S854	"https://kultur-burgenland.at/museen-galerien/detail/kellerviertel-heiligenbrunn/"	S813	+2020-02-20T00:00:00Z/11
Q1595161	P856	"http://www.kellerviertel-heiligenbrunn.at/"	P407	Q188	S854	"https://kultur-burgenland.at/museen-galerien/detail/kellerviertel-heiligenbrunn/"	S813	+2020-02-20T00:00:00Z/11
Q15117808	P1343	Q85680859	P2699	"https://kultur-burgenland.at/museen-galerien/detail/kunsthaus-rust/"	P3295	"kunsthaus-rust"	S854	"https://kultur-burgenland.at/museen-galerien/detail/kunsthaus-rust/"	S813	+2020-02-20T00:00:00Z/11
Q15117808	P281	"7071"	S854	"https://kultur-burgenland.at/museen-galerien/detail/kunsthaus-rust/"	S813	+2020-02-20T00:00:00Z/11
Q15117808	P856	"http://www.kunsthausrust.at/"	P407	Q188	S854	"https://kultur-burgenland.at/museen-galerien/detail/kunsthaus-rust/"	S813	+2020-02-20T00:00:00Z/11
Q1519226	P1343	Q85680859	P2699	"https://kultur-burgenland.at/museen-galerien/detail/landesmuseum-burgenland/"	P3295	"landesmuseum-burgenland"	S854	"https://kultur-burgenland.at/museen-galerien/detail/landesmuseum-burgenland/"	S813	+2020-02-20T00:00:00Z/11
Q1519226	P281	"7000"	S854	"https://kultur-burgenland.at/museen-galerien/detail/landesmuseum-burgenland/"	S813	+2020-02-20T00:00:00Z/11
Q1519226	P856	"https://landesmuseum-burgenland.at/"	P407	Q188	S854	"https://kultur-burgenland.at/museen-galerien/detail/landesmuseum-burgenland/"	S813	+2020-02-20T00:00:00Z/11
Q56491217	P1343	Q85680859	P2699	"https://kultur-burgenland.at/museen-galerien/detail/landtechnikmuseum-burgenland/"	P3295	"landtechnikmuseum-burgenland"	S854	"https://kultur-burgenland.at/museen-galerien/detail/landtechnikmuseum-burgenland/"	S813	+2020-02-20T00:00:00Z/11
Q56491217	P281	"7535"	S854	"https://kultur-burgenland.at/museen-galerien/detail/landtechnikmuseum-burgenland/"	S813	+2020-02-20T00:00:00Z/11
Q56491217	P856	"http://www.landtechnikmuseum.at"	P407	Q188	S854	"https://kultur-burgenland.at/museen-galerien/detail/landtechnikmuseum-burgenland/"	S813	+2020-02-20T00:00:00Z/11
Q1445881	P1343	Q85680859	P2699	"https://kultur-burgenland.at/museen-galerien/detail/liszt-haus-raiding/"	P3295	"liszt-haus-raiding"	S854	"https://kultur-burgenland.at/museen-galerien/detail/liszt-haus-raiding/"	S813	+2020-02-20T00:00:00Z/11
Q1445881	P281	"7321"	S854	"https://kultur-burgenland.at/museen-galerien/detail/liszt-haus-raiding/"	S813	+2020-02-20T00:00:00Z/11
Q1445881	P856	"https://liszt-haus.at/"	P407	Q188	S854	"https://kultur-burgenland.at/museen-galerien/detail/liszt-haus-raiding/"	S813	+2020-02-20T00:00:00Z/11
Q38075280	P1343	Q85680859	P2699	"https://kultur-burgenland.at/museen-galerien/detail/mida-huber-haus/"	P3295	"mida-huber-haus"	S854	"https://kultur-burgenland.at/museen-galerien/detail/mida-huber-haus/"	S813	+2020-02-20T00:00:00Z/11
Q38075280	P281	"7341"	S854	"https://kultur-burgenland.at/museen-galerien/detail/mida-huber-haus/"	S813	+2020-02-20T00:00:00Z/11
Q38075280	P856	"http://www.landseeaktiv.at/landsee/mida%20huber/mida.htm?utm_source=burgenland.info&utm_medium=betrieb_detail&utm_campaign=zur_webseite"	P407	Q188	S854	"https://kultur-burgenland.at/museen-galerien/detail/mida-huber-haus/"	S813	+2020-02-20T00:00:00Z/11
Q643017	P1343	Q85680859	P2699	"https://kultur-burgenland.at/museen-galerien/detail/nationalpark-neusiedler-see/"	P3295	"nationalpark-neusiedler-see"	S854	"https://kultur-burgenland.at/museen-galerien/detail/nationalpark-neusiedler-see/"	S813	+2020-02-20T00:00:00Z/11
Q643017	P281	"7142"	S854	"https://kultur-burgenland.at/museen-galerien/detail/nationalpark-neusiedler-see/"	S813	+2020-02-20T00:00:00Z/11
Q643017	P856	"http://www.nationalpark-neusiedlersee-seewinkel.at/"	P407	Q188	S854	"https://kultur-burgenland.at/museen-galerien/detail/nationalpark-neusiedler-see/"	S813	+2020-02-20T00:00:00Z/11
Q306644	P1343	Q85680859	P2699	"https://kultur-burgenland.at/museen-galerien/detail/oesterreichisches-juedisches-museum/"	P3295	"oesterreichisches-juedisches-museum"	S854	"https://kultur-burgenland.at/museen-galerien/detail/oesterreichisches-juedisches-museum/"	S813	+2020-02-20T00:00:00Z/11
Q306644	P281	"7000"	S854	"https://kultur-burgenland.at/museen-galerien/detail/oesterreichisches-juedisches-museum/"	S813	+2020-02-20T00:00:00Z/11
Q306644	P856	"http://www.ojm.at/"	P407	Q188	S854	"https://kultur-burgenland.at/museen-galerien/detail/oesterreichisches-juedisches-museum/"	S813	+2020-02-20T00:00:00Z/11
Q29838660	P1343	Q85680859	P2699	"https://kultur-burgenland.at/museen-galerien/detail/pfarrkirche-bernstein/"	P3295	"pfarrkirche-bernstein"	S854	"https://kultur-burgenland.at/museen-galerien/detail/pfarrkirche-bernstein/"	S813	+2020-02-20T00:00:00Z/11
Q29838660	P281	"7434"	S854	"https://kultur-burgenland.at/museen-galerien/detail/pfarrkirche-bernstein/"	S813	+2020-02-20T00:00:00Z/11
Q29838660	P856	"https://www.martinus.at/mariasdorf/Pfarrkirche%20Bernstein.htm"	P407	Q188	S854	"https://kultur-burgenland.at/museen-galerien/detail/pfarrkirche-bernstein/"	S813	+2020-02-20T00:00:00Z/11
Q15840287	P1343	Q85680859	P2699	"https://kultur-burgenland.at/museen-galerien/detail/pfarrkirche-deutschkreutz/"	P3295	"pfarrkirche-deutschkreutz"	S854	"https://kultur-burgenland.at/museen-galerien/detail/pfarrkirche-deutschkreutz/"	S813	+2020-02-20T00:00:00Z/11
Q15840287	P281	"7301"	S854	"https://kultur-burgenland.at/museen-galerien/detail/pfarrkirche-deutschkreutz/"	S813	+2020-02-20T00:00:00Z/11
Q15840287	P856	"http://www.pfarredeutschkreutz.at/"	P407	Q188	S854	"https://kultur-burgenland.at/museen-galerien/detail/pfarrkirche-deutschkreutz/"	S813	+2020-02-20T00:00:00Z/11
Q25914503	P1343	Q85680859	P2699	"https://kultur-burgenland.at/museen-galerien/detail/pfarrkirche-mariasdorf/"	P3295	"pfarrkirche-mariasdorf"	S854	"https://kultur-burgenland.at/museen-galerien/detail/pfarrkirche-mariasdorf/"	S813	+2020-02-20T00:00:00Z/11
Q25914503	P281	"7433"	S854	"https://kultur-burgenland.at/museen-galerien/detail/pfarrkirche-mariasdorf/"	S813	+2020-02-20T00:00:00Z/11
Q25914503	P856	"https://www.martinus.at/mariasdorf"	P407	Q188	S854	"https://kultur-burgenland.at/museen-galerien/detail/pfarrkirche-mariasdorf/"	S813	+2020-02-20T00:00:00Z/11
Q37944444	P1343	Q85680859	P2699	"https://kultur-burgenland.at/museen-galerien/detail/regional-und-telegraphenmuseum-stegersbach/"	P3295	"regional-und-telegraphenmuseum-stegersbach"	S854	"https://kultur-burgenland.at/museen-galerien/detail/regional-und-telegraphenmuseum-stegersbach/"	S813	+2020-02-20T00:00:00Z/11
Q37944444	P281	"7551"	S854	"https://kultur-burgenland.at/museen-galerien/detail/regional-und-telegraphenmuseum-stegersbach/"	S813	+2020-02-20T00:00:00Z/11
Q85654255	P1343	Q85680859	P2699	"https://kultur-burgenland.at/museen-galerien/detail/roemermuseum-st-martin-an-der-raab/"	P3295	"roemermuseum-st-martin-an-der-raab"	S854	"https://kultur-burgenland.at/museen-galerien/detail/roemermuseum-st-martin-an-der-raab/"	S813	+2020-02-20T00:00:00Z/11
Q85654255	P281	"8383"	S854	"https://kultur-burgenland.at/museen-galerien/detail/roemermuseum-st-martin-an-der-raab/"	S813	+2020-02-20T00:00:00Z/11
Q85654255	P856	"http://www.sankt-martin-raab.at/node/20"	P407	Q188	S854	"https://kultur-burgenland.at/museen-galerien/detail/roemermuseum-st-martin-an-der-raab/"	S813	+2020-02-20T00:00:00Z/11
Q2166547	P1343	Q85680859	P2699	"https://kultur-burgenland.at/museen-galerien/detail/rosalienkapelle-forchtenstein/"	P3295	"rosalienkapelle-forchtenstein"	S854	"https://kultur-burgenland.at/museen-galerien/detail/rosalienkapelle-forchtenstein/"	S813	+2020-02-20T00:00:00Z/11
Q2166547	P281	"7212"	S854	"https://kultur-burgenland.at/museen-galerien/detail/rosalienkapelle-forchtenstein/"	S813	+2020-02-20T00:00:00Z/11
Q2166547	P856	"http://www.forchtenstein.at/tourismus-freizeit/sehenswuerdigkeiten/rosalienkapelle/"	P407	Q188	S854	"https://kultur-burgenland.at/museen-galerien/detail/rosalienkapelle-forchtenstein/"	S813	+2020-02-20T00:00:00Z/11
Q1739715	P1343	Q85680859	P2699	"https://kultur-burgenland.at/museen-galerien/detail/schloss-deutschkreutz/"	P3295	"schloss-deutschkreutz"	S854	"https://kultur-burgenland.at/museen-galerien/detail/schloss-deutschkreutz/"	S813	+2020-02-20T00:00:00Z/11
Q1739715	P281	"7301"	S854	"https://kultur-burgenland.at/museen-galerien/detail/schloss-deutschkreutz/"	S813	+2020-02-20T00:00:00Z/11
Q1739715	P856	"http://www.schlossdeutschkreutz.at/"	P407	Q188	S854	"https://kultur-burgenland.at/museen-galerien/detail/schloss-deutschkreutz/"	S813	+2020-02-20T00:00:00Z/11
Q686787	P1343	Q85680859	P2699	"https://kultur-burgenland.at/museen-galerien/detail/schloss-esterhazy/"	P3295	"schloss-esterhazy"	S854	"https://kultur-burgenland.at/museen-galerien/detail/schloss-esterhazy/"	S813	+2020-02-20T00:00:00Z/11
Q686787	P281	"7000"	S854	"https://kultur-burgenland.at/museen-galerien/detail/schloss-esterhazy/"	S813	+2020-02-20T00:00:00Z/11
Q686787	P856	"https://esterhazy.at/de/index.do"	P407	Q188	S854	"https://kultur-burgenland.at/museen-galerien/detail/schloss-esterhazy/"	S813	+2020-02-20T00:00:00Z/11
Q1684420	P1343	Q85680859	P2699	"https://kultur-burgenland.at/museen-galerien/detail/schloss-kobersdorf/"	P3295	"schloss-kobersdorf"	S854	"https://kultur-burgenland.at/museen-galerien/detail/schloss-kobersdorf/"	S813	+2020-02-20T00:00:00Z/11
Q1684420	P281	"7332"	S854	"https://kultur-burgenland.at/museen-galerien/detail/schloss-kobersdorf/"	S813	+2020-02-20T00:00:00Z/11
Q1684420	P856	"http://www.schloss-kobersdorf.at/"	P407	Q188	S854	"https://kultur-burgenland.at/museen-galerien/detail/schloss-kobersdorf/"	S813	+2020-02-20T00:00:00Z/11
Q2242013	P1343	Q85680859	P2699	"https://kultur-burgenland.at/museen-galerien/detail/schloss-lackenbach/"	P3295	"schloss-lackenbach"	S854	"https://kultur-burgenland.at/museen-galerien/detail/schloss-lackenbach/"	S813	+2020-02-20T00:00:00Z/11
Q2242013	P281	"7322"	S854	"https://kultur-burgenland.at/museen-galerien/detail/schloss-lackenbach/"	S813	+2020-02-20T00:00:00Z/11
Q2242013	P856	"https://esterhazy.at/de/schlosslackenbach/index.do"	P407	Q188	S854	"https://kultur-burgenland.at/museen-galerien/detail/schloss-lackenbach/"	S813	+2020-02-20T00:00:00Z/11
Q37950510	P1343	Q85680859	P2699	"https://kultur-burgenland.at/museen-galerien/detail/schloss-nebersdorf/"	P3295	"schloss-nebersdorf"	S854	"https://kultur-burgenland.at/museen-galerien/detail/schloss-nebersdorf/"	S813	+2020-02-20T00:00:00Z/11
Q37950510	P281	"7304"	S854	"https://kultur-burgenland.at/museen-galerien/detail/schloss-nebersdorf/"	S813	+2020-02-20T00:00:00Z/11
Q37950510	P856	"http://www.schloss-nebersdorf.at/"	P407	Q188	S854	"https://kultur-burgenland.at/museen-galerien/detail/schloss-nebersdorf/"	S813	+2020-02-20T00:00:00Z/11
Q21863402	P1343	Q85680859	P2699	"https://kultur-burgenland.at/museen-galerien/detail/schloss-tabor-neuhaus-am-klausenbach/"	P3295	"schloss-tabor-neuhaus-am-klausenbach"	S854	"https://kultur-burgenland.at/museen-galerien/detail/schloss-tabor-neuhaus-am-klausenbach/"	S813	+2020-02-20T00:00:00Z/11
Q21863402	P281	"8385"	S854	"https://kultur-burgenland.at/museen-galerien/detail/schloss-tabor-neuhaus-am-klausenbach/"	S813	+2020-02-20T00:00:00Z/11
Q21863402	P856	"https://www.jopera.at/"	P407	Q188	S854	"https://kultur-burgenland.at/museen-galerien/detail/schloss-tabor-neuhaus-am-klausenbach/"	S813	+2020-02-20T00:00:00Z/11
Q63395190	P1343	Q85680859	P2699	"https://kultur-burgenland.at/museen-galerien/detail/stadt-tuchmacher-und-feuerwehrmuseum-pinkafeld/"	P3295	"stadt-tuchmacher-und-feuerwehrmuseum-pinkafeld"	S854	"https://kultur-burgenland.at/museen-galerien/detail/stadt-tuchmacher-und-feuerwehrmuseum-pinkafeld/"	S813	+2020-02-20T00:00:00Z/11
Q63395190	P281	"7423"	S854	"https://kultur-burgenland.at/museen-galerien/detail/stadt-tuchmacher-und-feuerwehrmuseum-pinkafeld/"	S813	+2020-02-20T00:00:00Z/11
Q63395190	P856	"http://www.museumpinkafeld.at/"	P407	Q188	S854	"https://kultur-burgenland.at/museen-galerien/detail/stadt-tuchmacher-und-feuerwehrmuseum-pinkafeld/"	S813	+2020-02-20T00:00:00Z/11
Q1668005	P1343	Q85680859	P2699	"https://kultur-burgenland.at/museen-galerien/detail/steinmetzmuseum-kaisersteinbruch/"	P3295	"steinmetzmuseum-kaisersteinbruch"	S854	"https://kultur-burgenland.at/museen-galerien/detail/steinmetzmuseum-kaisersteinbruch/"	S813	+2020-02-20T00:00:00Z/11
Q1668005	P281	"2462"	S854	"https://kultur-burgenland.at/museen-galerien/detail/steinmetzmuseum-kaisersteinbruch/"	S813	+2020-02-20T00:00:00Z/11
Q1668005	P856	"http://www.steinmetzmuseum-kaisersteinbruch.at/"	P407	Q188	S854	"https://kultur-burgenland.at/museen-galerien/detail/steinmetzmuseum-kaisersteinbruch/"	S813	+2020-02-20T00:00:00Z/11
Q2464088	P1343	Q85680859	P2699	"https://kultur-burgenland.at/museen-galerien/detail/toepfermuseum-stoob/"	P3295	"toepfermuseum-stoob"	S854	"https://kultur-burgenland.at/museen-galerien/detail/toepfermuseum-stoob/"	S813	+2020-02-20T00:00:00Z/11
Q2464088	P281	"7344"	S854	"https://kultur-burgenland.at/museen-galerien/detail/toepfermuseum-stoob/"	S813	+2020-02-20T00:00:00Z/11
Q2464088	P856	"http://toepfermuseum.at/"	P407	Q188	S854	"https://kultur-burgenland.at/museen-galerien/detail/toepfermuseum-stoob/"	S813	+2020-02-20T00:00:00Z/11
Q38058488	P1343	Q85680859	P2699	"https://kultur-burgenland.at/museen-galerien/detail/windmuehle-podersdorf-am-see/"	P3295	"windmuehle-podersdorf-am-see"	S854	"https://kultur-burgenland.at/museen-galerien/detail/windmuehle-podersdorf-am-see/"	S813	+2020-02-20T00:00:00Z/11
Q38058488	P281	"7141"	S854	"https://kultur-burgenland.at/museen-galerien/detail/windmuehle-podersdorf-am-see/"	S813	+2020-02-20T00:00:00Z/11
Q38058488	P856	"http://www.diewindmuehle.at/"	P407	Q188	S854	"https://kultur-burgenland.at/museen-galerien/detail/windmuehle-podersdorf-am-see/"	S813	+2020-02-20T00:00:00Z/11

